{
  "alt_name": [
    "Ah My Buddha",
    "Amaenaideyo!!"
  ],
  "anime_id": "591",
  "broadcast": "Unknown",
  "duration_mins": 24,
  "end_date": "Sep 16, 2005",
  "genre": [
    "Comedy",
    "Ecchi",
    "Harem",
    "Romance",
    "Supernatural"
  ],
  "licensor": [
    "Nozomi Entertainment",
    "Media Blasters"
  ],
  "num_episodes": 12,
  "persona_crew": [
    {
      "crew": "31",
      "persona": "5015"
    },
    {
      "crew": "164",
      "persona": "4826"
    },
    {
      "crew": "315",
      "persona": "5019"
    },
    {
      "crew": "94",
      "persona": "5018"
    },
    {
      "crew": "50",
      "persona": "5016"
    },
    {
      "crew": "71",
      "persona": "5017"
    },
    {
      "crew": "98",
      "persona": "107699"
    },
    {
      "crew": "81",
      "persona": "28059"
    },
    {
      "crew": "1501",
      "persona": "5020"
    },
    {
      "crew": "143",
      "persona": "15794"
    }
  ],
  "pic_url": "https://myanimelist.cdn-dena.com/images/anime/2/32071.jpg",
  "premiered": "Summer 2005",
  "primary_name": "Amaenaide yo!!",
  "rating": "R+ - Mild Nudity",
  "source": "Manga",
  "start_date": "Jul 1, 2005",
  "status": "Finished Airing",
  "studio": [
    "Studio Deen"
  ],
  "synopsis": "Satonaka Ikkou, a 16 year old boy, is a first year trainee at the Saienji Buddhist Temple. He was sent there by his parents to be trained by his grandmother, the Saienji Priestess. At the temple he finds himself surrounded by beautiful female priestesses-in-training. Upon seeing a girl naked, Ikko has the ability to turn into a super-monk, performing massive exorcisms for the good of the temple. (Source: ANN)",
  "type": "TV"
}